{
  "list": [
    {
      "artifact_id": 301040201,
      "max_level": 5,
      "name": "サント・アルミュール",
      "comment": "",
      "rarity": "3",
      "skill1_info": {
        "skill_id": 30062,
        "skill_quality": 2,
        "level": 1,
        "name": "トリプルアタック確率",
        "is_max_quality": false,
        "effect_value": "+4.8%",
        "icon_image": "bonus_28"
      },
      "skill2_info": {
        "skill_id": 30051,
        "skill_quality": 1,
        "level": 1,
        "name": "ダブルアタック確率",
        "is_max_quality": false,
        "effect_value": "+6.6%",
        "icon_image": "bonus_28"
      },
      "skill3_info": {
        "skill_id": 40011,
        "skill_quality": 1,
        "level": 1,
        "name": "確率で強化効果が無効化されない",
        "is_max_quality": true,
        "effect_value": "20%",
        "icon_image": "bonus_29"
      },
      "skill4_info": {
        "skill_id": 30321,
        "skill_quality": 1,
        "level": 1,
        "name": "獲得経験値UP(重複不可)　◆サブメンバーにいる場合でも発動",
        "is_max_quality": true,
        "effect_value": "+1%",
        "icon_image": "bonus_30"
      },
      "id": 10598140,
      "level": "1",
      "kind": "4",
      "attribute": "3",
      "next_exp": 30000,
      "remain_next_exp": 30000,
      "exp_width": 0,
      "is_locked": false,
      "is_unnecessary": false,
      "equip_npc_info": []
    },
    {
      "artifact_id": 301100201,
      "max_level": 5,
      "name": "サント・キャプション",
      "comment": "",
      "rarity": "3",
      "skill1_info": {
        "skill_id": 30011,
        "skill_quality": 1,
        "level": 1,
        "name": "クリティカル確率",
        "is_max_quality": false,
        "effect_value": "+13.2%",
        "icon_image": "bonus_28"
      },
      "skill2_info": {
        "skill_id": 10012,
        "skill_quality": 2,
        "level": 1,
        "name": "攻撃力",
        "is_max_quality": false,
        "effect_value": "+1440",
        "icon_image": "bonus_28"
      },
      "skill3_info": {
        "skill_id": 30232,
        "skill_quality": 2,
        "level": 1,
        "name": "HPが100%の時、与ダメージUP",
        "is_max_quality": false,
        "effect_value": "+2.4%",
        "icon_image": "bonus_29"
      },
      "skill4_info": {
        "skill_id": 50081,
        "skill_quality": 1,
        "level": 1,
        "name": "1回攻撃発動時、自分に一定個数ランダムな強化効果",
        "is_max_quality": true,
        "effect_value": "1個",
        "icon_image": "bonus_30"
      },
      "id": 10598127,
      "level": "1",
      "kind": "10",
      "attribute": "2",
      "next_exp": 30000,
      "remain_next_exp": 30000,
      "exp_width": 0,
      "is_locked": false,
      "is_unnecessary": false,
      "equip_npc_info": []
    },
    {
      "artifact_id": 301050201,
      "max_level": 5,
      "name": "サント・ローブ",
      "comment": "",
      "rarity": "3",
      "skill1_info": {
        "skill_id": 30035,
        "skill_quality": 5,
        "level": 1,
        "name": "アビリティダメージ",
        "is_max_quality": true,
        "effect_value": "+18%",
        "icon_image": "bonus_28"
      },
      "skill2_info": {
        "skill_id": 10014,
        "skill_quality": 4,
        "level": 1,
        "name": "攻撃力",
        "is_max_quality": false,
        "effect_value": "+1680",
        "icon_image": "bonus_28"
      },
      "skill3_info": {
        "skill_id": 30264,
        "skill_quality": 4,
        "level": 1,
        "name": "クリティカル発動時、ダメージ上限UP",
        "is_max_quality": false,
        "effect_value": "+2.8%",
        "icon_image": "bonus_29"
      },
      "skill4_info": {
        "skill_id": 50121,
        "skill_quality": 1,
        "level": 1,
        "name": "攻撃開始時に敵の弱体効果の数が3つ以下の時、自分にブロック効果",
        "is_max_quality": true,
        "effect_value": "5%",
        "icon_image": "bonus_30"
      },
      "id": 10597968,
      "level": "1",
      "kind": "5",
      "attribute": "4",
      "next_exp": 30000,
      "remain_next_exp": 30000,
      "exp_width": 0,
      "is_locked": false,
      "is_unnecessary": false,
      "equip_npc_info": []
    },
    {
      "artifact_id": 301020101,
      "max_level": 5,
      "name": "オミナス・リング",
      "comment": "",
      "rarity": "3",
      "skill1_info": {
        "skill_id": 30092,
        "skill_quality": 2,
        "level": 1,
        "name": "回避率",
        "is_max_quality": false,
        "effect_value": "+4.8%",
        "icon_image": "bonus_28"
      },
      "skill2_info": {
        "skill_id": 30053,
        "skill_quality": 3,
        "level": 1,
        "name": "ダブルアタック確率",
        "is_max_quality": false,
        "effect_value": "+7.8%",
        "icon_image": "bonus_28"
      },
      "skill3_info": {
        "skill_id": 30281,
        "skill_quality": 1,
        "level": 1,
        "name": "通常攻撃ダメージ上限UP/アビリティダメージ上限-80％/奥義ダメージ上限-60％",
        "is_max_quality": false,
        "effect_value": "+4.4%",
        "icon_image": "bonus_29"
      },
      "skill4_info": {
        "skill_id": 50151,
        "skill_quality": 1,
        "level": 1,
        "name": "一定回数敵の攻撃行動のターゲットになった場合、一度だけ自分に自属性追撃(1回)効果",
        "is_max_quality": true,
        "effect_value": "7回",
        "icon_image": "bonus_30"
      },
      "id": 10597888,
      "level": "1",
      "kind": "2",
      "attribute": "4",
      "next_exp": 30000,
      "remain_next_exp": 30000,
      "exp_width": 0,
      "is_locked": false,
      "is_unnecessary": false,
      "equip_npc_info": []
    },
    {
      "artifact_id": 301070201,
      "max_level": 5,
      "name": "サント・ブート",
      "comment": "",
      "rarity": "3",
      "skill1_info": {
        "skill_id": 30121,
        "skill_quality": 1,
        "level": 1,
        "name": "有利属性軽減",
        "is_max_quality": false,
        "effect_value": "+4.4%",
        "icon_image": "bonus_28"
      },
      "skill2_info": {
        "skill_id": 30112,
        "skill_quality": 2,
        "level": 1,
        "name": "自属性攻撃力",
        "is_max_quality": false,
        "effect_value": "+9.6%",
        "icon_image": "bonus_28"
      },
      "skill3_info": {
        "skill_id": 50011,
        "skill_quality": 1,
        "level": 1,
        "name": "確率で攻撃開始時に自分の弱体効果を1つ回復",
        "is_max_quality": true,
        "effect_value": "20%",
        "icon_image": "bonus_29"
      },
      "skill4_info": {
        "skill_id": 50201,
        "skill_quality": 1,
        "level": 1,
        "name": "バトル登場時に一度だけ自分の与ダメージUP",
        "is_max_quality": true,
        "effect_value": "3%",
        "icon_image": "bonus_30"
      },
      "id": 10597878,
      "level": "1",
      "kind": "7",
      "attribute": "2",
      "next_exp": 30000,
      "remain_next_exp": 30000,
      "exp_width": 0,
      "is_locked": false,
      "is_unnecessary": false,
      "equip_npc_info": []
    },
    {
      "artifact_id": 301100301,
      "max_level": 5,
      "name": "金華香炉",
      "comment": "",
      "rarity": "3",
      "skill1_info": {
        "skill_id": 30025,
        "skill_quality": 5,
        "level": 1,
        "name": "奥義ダメージ",
        "is_max_quality": true,
        "effect_value": "+18%",
        "icon_image": "bonus_28"
      },
      "skill2_info": {
        "skill_id": 10013,
        "skill_quality": 3,
        "level": 1,
        "name": "攻撃力",
        "is_max_quality": false,
        "effect_value": "+1560",
        "icon_image": "bonus_28"
      },
      "skill3_info": {
        "skill_id": 30181,
        "skill_quality": 1,
        "level": 1,
        "name": "奥義与ダメージ上昇",
        "is_max_quality": false,
        "effect_value": "+110000",
        "icon_image": "bonus_29"
      },
      "skill4_info": {
        "skill_id": 50151,
        "skill_quality": 1,
        "level": 1,
        "name": "一定回数敵の攻撃行動のターゲットになった場合、一度だけ自分に自属性追撃(1回)効果",
        "is_max_quality": true,
        "effect_value": "7回",
        "icon_image": "bonus_30"
      },
      "id": 10597846,
      "level": "1",
      "kind": "10",
      "attribute": "1",
      "next_exp": 30000,
      "remain_next_exp": 30000,
      "exp_width": 0,
      "is_locked": false,
      "is_unnecessary": false,
      "equip_npc_info": []
    },
    {
      "artifact_id": 301010301,
      "max_level": 5,
      "name": "金華羽飾",
      "comment": "",
      "rarity": "3",
      "skill1_info": {
        "skill_id": 30052,
        "skill_quality": 2,
        "level": 1,
        "name": "ダブルアタック確率",
        "is_max_quality": false,
        "effect_value": "+7.2%",
        "icon_image": "bonus_28"
      },
      "skill2_info": {
        "skill_id": 10012,
        "skill_quality": 2,
        "level": 1,
        "name": "攻撃力",
        "is_max_quality": false,
        "effect_value": "+1440",
        "icon_image": "bonus_28"
      },
      "skill3_info": {
        "skill_id": 30202,
        "skill_quality": 2,
        "level": 1,
        "name": "チェイン与ダメージUP",
        "is_max_quality": false,
        "effect_value": "+7.2%",
        "icon_image": "bonus_29"
      },
      "skill4_info": {
        "skill_id": 50061,
        "skill_quality": 1,
        "level": 1,
        "name": "アビリティを一定回数使用する度に自分にダメージ上限UP(累積)",
        "is_max_quality": true,
        "effect_value": "5回",
        "icon_image": "bonus_30"
      },
      "id": 10597841,
      "level": "1",
      "kind": "1",
      "attribute": "6",
      "next_exp": 30000,
      "remain_next_exp": 30000,
      "exp_width": 0,
      "is_locked": false,
      "is_unnecessary": false,
      "equip_npc_info": []
    },
    {
      "artifact_id": 301010101,
      "max_level": 5,
      "name": "オミナス・アミュレット",
      "comment": "",
      "rarity": "3",
      "skill1_info": {
        "skill_id": 30044,
        "skill_quality": 4,
        "level": 1,
        "name": "弱体成功率",
        "is_max_quality": false,
        "effect_value": "+8.4%",
        "icon_image": "bonus_28"
      },
      "skill2_info": {
        "skill_id": 30014,
        "skill_quality": 4,
        "level": 1,
        "name": "クリティカル確率",
        "is_max_quality": false,
        "effect_value": "+16.8%",
        "icon_image": "bonus_28"
      },
      "skill3_info": {
        "skill_id": 30201,
        "skill_quality": 1,
        "level": 1,
        "name": "チェイン与ダメージUP",
        "is_max_quality": false,
        "effect_value": "+6.6%",
        "icon_image": "bonus_29"
      },
      "skill4_info": {
        "skill_id": 50281,
        "skill_quality": 1,
        "level": 1,
        "name": "ターン終了時、確率で敵の強化効果を全て無効化(重複不可)",
        "is_max_quality": true,
        "effect_value": "1%",
        "icon_image": "bonus_30"
      },
      "id": 10597812,
      "level": "1",
      "kind": "1",
      "attribute": "3",
      "next_exp": 30000,
      "remain_next_exp": 30000,
      "exp_width": 0,
      "is_locked": false,
      "is_unnecessary": false,
      "equip_npc_info": []
    },
    {
      "artifact_id": 301100101,
      "max_level": 5,
      "name": "オミナス・ストーン",
      "comment": "",
      "rarity": "3",
      "skill1_info": {
        "skill_id": 30061,
        "skill_quality": 1,
        "level": 1,
        "name": "トリプルアタック確率",
        "is_max_quality": false,
        "effect_value": "+4.4%",
        "icon_image": "bonus_28"
      },
      "skill2_info": {
        "skill_id": 30053,
        "skill_quality": 3,
        "level": 1,
        "name": "ダブルアタック確率",
        "is_max_quality": false,
        "effect_value": "+7.8%",
        "icon_image": "bonus_28"
      },
      "skill3_info": {
        "skill_id": 30251,
        "skill_quality": 1,
        "level": 1,
        "name": "HPが50%以下の時、被ダメージを軽減",
        "is_max_quality": false,
        "effect_value": "+8.8%",
        "icon_image": "bonus_29"
      },
      "skill4_info": {
        "skill_id": 50071,
        "skill_quality": 1,
        "level": 1,
        "name": "アビリティダメージを一定量与える毎に自分にアビリティ与ダメージ上昇(累積)",
        "is_max_quality": true,
        "effect_value": "40000000",
        "icon_image": "bonus_30"
      },
      "id": 10597776,
      "level": "1",
      "kind": "10",
      "attribute": "2",
      "next_exp": 30000,
      "remain_next_exp": 30000,
      "exp_width": 0,
      "is_locked": false,
      "is_unnecessary": false,
      "equip_npc_info": []
    },
    {
      "artifact_id": 301060101,
      "max_level": 5,
      "name": "オミナス・ペンダント",
      "comment": "",
      "rarity": "3",
      "skill1_info": {
        "skill_id": 30112,
        "skill_quality": 2,
        "level": 1,
        "name": "自属性攻撃力",
        "is_max_quality": false,
        "effect_value": "+9.6%",
        "icon_image": "bonus_28"
      },
      "skill2_info": {
        "skill_id": 30094,
        "skill_quality": 4,
        "level": 1,
        "name": "回避率",
        "is_max_quality": false,
        "effect_value": "+5.6%",
        "icon_image": "bonus_28"
      },
      "skill3_info": {
        "skill_id": 30305,
        "skill_quality": 5,
        "level": 1,
        "name": "奥義ダメージ上限UP/通常攻撃ダメージ上限-20％/アビリティダメージ上限-80％",
        "is_max_quality": true,
        "effect_value": "+18%",
        "icon_image": "bonus_29"
      },
      "skill4_info": {
        "skill_id": 30311,
        "skill_quality": 1,
        "level": 1,
        "name": "アイテムドロップ率UP(重複不可)　◆サブメンバーにいる場合でも発動",
        "is_max_quality": true,
        "effect_value": "+0.5%",
        "icon_image": "bonus_30"
      },
      "id": 10597775,
      "level": "1",
      "kind": "6",
      "attribute": "2",
      "next_exp": 30000,
      "remain_next_exp": 30000,
      "exp_width": 0,
      "is_locked": false,
      "is_unnecessary": false,
      "equip_npc_info": []
    },
    {
      "artifact_id": 301030101,
      "max_level": 5,
      "name": "オミナス・ゴブレット",
      "comment": "",
      "rarity": "3",
      "skill1_info": {
        "skill_id": 30124,
        "skill_quality": 4,
        "level": 1,
        "name": "有利属性軽減",
        "is_max_quality": false,
        "effect_value": "+5.6%",
        "icon_image": "bonus_28"
      },
      "skill2_info": {
        "skill_id": 30083,
        "skill_quality": 3,
        "level": 1,
        "name": "弱体耐性",
        "is_max_quality": false,
        "effect_value": "+7.8%",
        "icon_image": "bonus_28"
      },
      "skill3_info": {
        "skill_id": 30264,
        "skill_quality": 4,
        "level": 1,
        "name": "クリティカル発動時、ダメージ上限UP",
        "is_max_quality": false,
        "effect_value": "+2.8%",
        "icon_image": "bonus_29"
      },
      "skill4_info": {
        "skill_id": 50081,
        "skill_quality": 1,
        "level": 1,
        "name": "1回攻撃発動時、自分に一定個数ランダムな強化効果",
        "is_max_quality": true,
        "effect_value": "1個",
        "icon_image": "bonus_30"
      },
      "id": 10597509,
      "level": "1",
      "kind": "3",
      "attribute": "4",
      "next_exp": 30000,
      "remain_next_exp": 30000,
      "exp_width": 0,
      "is_locked": false,
      "is_unnecessary": false,
      "equip_npc_info": []
    },
    {
      "artifact_id": 301010101,
      "max_level": 5,
      "name": "オミナス・アミュレット",
      "comment": "",
      "rarity": "3",
      "skill1_info": {
        "skill_id": 30101,
        "skill_quality": 1,
        "level": 1,
        "name": "回復性能",
        "is_max_quality": false,
        "effect_value": "+13.2%",
        "icon_image": "bonus_28"
      },
      "skill2_info": {
        "skill_id": 30063,
        "skill_quality": 3,
        "level": 1,
        "name": "トリプルアタック確率",
        "is_max_quality": false,
        "effect_value": "+5.2%",
        "icon_image": "bonus_28"
      },
      "skill3_info": {
        "skill_id": 30171,
        "skill_quality": 1,
        "level": 1,
        "name": "アビリティ与ダメージ上昇",
        "is_max_quality": false,
        "effect_value": "+11000",
        "icon_image": "bonus_29"
      },
      "skill4_info": {
        "skill_id": 50131,
        "skill_quality": 1,
        "level": 1,
        "name": "ターン終了時にHPが50%以下の敵がいる時、一度だけ自分のHPを回復",
        "is_max_quality": true,
        "effect_value": "2000",
        "icon_image": "bonus_30"
      },
      "id": 10597382,
      "level": "1",
      "kind": "1",
      "attribute": "4",
      "next_exp": 30000,
      "remain_next_exp": 30000,
      "exp_width": 0,
      "is_locked": false,
      "is_unnecessary": false,
      "equip_npc_info": []
    },
    {
      "artifact_id": 301010101,
      "max_level": 5,
      "name": "オミナス・アミュレット",
      "comment": "",
      "rarity": "3",
      "skill1_info": {
        "skill_id": 30012,
        "skill_quality": 2,
        "level": 1,
        "name": "クリティカル確率",
        "is_max_quality": false,
        "effect_value": "+14.4%",
        "icon_image": "bonus_28"
      },
      "skill2_info": {
        "skill_id": 30031,
        "skill_quality": 1,
        "level": 1,
        "name": "アビリティダメージ",
        "is_max_quality": false,
        "effect_value": "+13.2%",
        "icon_image": "bonus_28"
      },
      "skill3_info": {
        "skill_id": 30283,
        "skill_quality": 3,
        "level": 1,
        "name": "通常攻撃ダメージ上限UP/アビリティダメージ上限-80％/奥義ダメージ上限-60％",
        "is_max_quality": false,
        "effect_value": "+5.2%",
        "icon_image": "bonus_29"
      },
      "skill4_info": {
        "skill_id": 50041,
        "skill_quality": 1,
        "level": 1,
        "name": "リンクアビリティを一定回数使用時に自分のリンクアビリティの再使用間隔を1ターン短縮",
        "is_max_quality": true,
        "effect_value": "8回",
        "icon_image": "bonus_30"
      },
      "id": 10596816,
      "level": "1",
      "kind": "1",
      "attribute": "2",
      "next_exp": 30000,
      "remain_next_exp": 30000,
      "exp_width": 0,
      "is_locked": false,
      "is_unnecessary": false,
      "equip_npc_info": []
    },
    {
      "artifact_id": 301080101,
      "max_level": 5,
      "name": "オミナス・フィアン",
      "comment": "",
      "rarity": "3",
      "skill1_info": {
        "skill_id": 30012,
        "skill_quality": 2,
        "level": 1,
        "name": "クリティカル確率",
        "is_max_quality": false,
        "effect_value": "+14.4%",
        "icon_image": "bonus_28"
      },
      "skill2_info": {
        "skill_id": 30052,
        "skill_quality": 2,
        "level": 1,
        "name": "ダブルアタック確率",
        "is_max_quality": false,
        "effect_value": "+7.2%",
        "icon_image": "bonus_28"
      },
      "skill3_info": {
        "skill_id": 30204,
        "skill_quality": 4,
        "level": 1,
        "name": "チェイン与ダメージUP",
        "is_max_quality": false,
        "effect_value": "+8.4%",
        "icon_image": "bonus_29"
      },
      "skill4_info": {
        "skill_id": 50231,
        "skill_quality": 1,
        "level": 1,
        "name": "バトル開始時と5ターン毎に自分にバリア効果",
        "is_max_quality": true,
        "effect_value": "1000",
        "icon_image": "bonus_30"
      },
      "id": 10596746,
      "level": "1",
      "kind": "8",
      "attribute": "6",
      "next_exp": 30000,
      "remain_next_exp": 30000,
      "exp_width": 0,
      "is_locked": false,
      "is_unnecessary": false,
      "equip_npc_info": []
    },
    {
      "artifact_id": 301020101,
      "max_level": 5,
      "name": "オミナス・リング",
      "comment": "",
      "rarity": "3",
      "skill1_info": {
        "skill_id": 30014,
        "skill_quality": 4,
        "level": 1,
        "name": "クリティカル確率",
        "is_max_quality": false,
        "effect_value": "+16.8%",
        "icon_image": "bonus_28"
      },
      "skill2_info": {
        "skill_id": 30093,
        "skill_quality": 3,
        "level": 1,
        "name": "回避率",
        "is_max_quality": false,
        "effect_value": "+5.2%",
        "icon_image": "bonus_28"
      },
      "skill3_info": {
        "skill_id": 30215,
        "skill_quality": 5,
        "level": 1,
        "name": "ターンダメージを軽減",
        "is_max_quality": true,
        "effect_value": "+12%",
        "icon_image": "bonus_29"
      },
      "skill4_info": {
        "skill_id": 50111,
        "skill_quality": 1,
        "level": 1,
        "name": "ターン終了時、自分がそのターン中に消費した奥義ゲージ量に応じて自分に与ダメージ上昇",
        "is_max_quality": true,
        "effect_value": "最大5000",
        "icon_image": "bonus_30"
      },
      "id": 10596726,
      "level": "1",
      "kind": "2",
      "attribute": "6",
      "next_exp": 30000,
      "remain_next_exp": 30000,
      "exp_width": 0,
      "is_locked": false,
      "is_unnecessary": false,
      "equip_npc_info": []
    },
    {
      "artifact_id": 301050301,
      "max_level": 5,
      "name": "金華名鏡",
      "comment": "",
      "rarity": "3",
      "skill1_info": {
        "skill_id": 30022,
        "skill_quality": 2,
        "level": 1,
        "name": "奥義ダメージ",
        "is_max_quality": false,
        "effect_value": "+14.4%",
        "icon_image": "bonus_28"
      },
      "skill2_info": {
        "skill_id": 20012,
        "skill_quality": 2,
        "level": 1,
        "name": "HP",
        "is_max_quality": false,
        "effect_value": "+720",
        "icon_image": "bonus_28"
      },
      "skill3_info": {
        "skill_id": 30175,
        "skill_quality": 5,
        "level": 1,
        "name": "アビリティ与ダメージ上昇",
        "is_max_quality": true,
        "effect_value": "+15000",
        "icon_image": "bonus_29"
      },
      "skill4_info": {
        "skill_id": 50061,
        "skill_quality": 1,
        "level": 1,
        "name": "アビリティを一定回数使用する度に自分にダメージ上限UP(累積)",
        "is_max_quality": true,
        "effect_value": "5回",
        "icon_image": "bonus_30"
      },
      "id": 10596673,
      "level": "1",
      "kind": "5",
      "attribute": "6",
      "next_exp": 30000,
      "remain_next_exp": 30000,
      "exp_width": 0,
      "is_locked": false,
      "is_unnecessary": false,
      "equip_npc_info": []
    },
    {
      "artifact_id": 301060301,
      "max_level": 5,
      "name": "金華望鏡",
      "comment": "",
      "rarity": "3",
      "skill1_info": {
        "skill_id": 30063,
        "skill_quality": 3,
        "level": 1,
        "name": "トリプルアタック確率",
        "is_max_quality": false,
        "effect_value": "+5.2%",
        "icon_image": "bonus_28"
      },
      "skill2_info": {
        "skill_id": 30083,
        "skill_quality": 3,
        "level": 1,
        "name": "弱体耐性",
        "is_max_quality": false,
        "effect_value": "+7.8%",
        "icon_image": "bonus_28"
      },
      "skill3_info": {
        "skill_id": 30162,
        "skill_quality": 2,
        "level": 1,
        "name": "通常攻撃の与ダメージ上昇",
        "is_max_quality": false,
        "effect_value": "+9600",
        "icon_image": "bonus_29"
      },
      "skill4_info": {
        "skill_id": 50181,
        "skill_quality": 1,
        "level": 1,
        "name": "敵に一定回数攻撃を与えた時、一度だけ自分に乱撃(3ヒット)効果(1回)",
        "is_max_quality": true,
        "effect_value": "200回",
        "icon_image": "bonus_30"
      },
      "id": 10596573,
      "level": "1",
      "kind": "6",
      "attribute": "2",
      "next_exp": 30000,
      "remain_next_exp": 30000,
      "exp_width": 0,
      "is_locked": false,
      "is_unnecessary": false,
      "equip_npc_info": []
    },
    {
      "artifact_id": 301090301,
      "max_level": 5,
      "name": "金華銅鑼",
      "comment": "",
      "rarity": "3",
      "skill1_info": {
        "skill_id": 30013,
        "skill_quality": 3,
        "level": 1,
        "name": "クリティカル確率",
        "is_max_quality": false,
        "effect_value": "+15.6%",
        "icon_image": "bonus_28"
      },
      "skill2_info": {
        "skill_id": 30104,
        "skill_quality": 4,
        "level": 1,
        "name": "回復性能",
        "is_max_quality": false,
        "effect_value": "+16.8%",
        "icon_image": "bonus_28"
      },
      "skill3_info": {
        "skill_id": 30242,
        "skill_quality": 2,
        "level": 1,
        "name": "HPが50%以上の時、トリプルアタック確率UP",
        "is_max_quality": false,
        "effect_value": "+7.2%",
        "icon_image": "bonus_29"
      },
      "skill4_info": {
        "skill_id": 50111,
        "skill_quality": 1,
        "level": 1,
        "name": "ターン終了時、自分がそのターン中に消費した奥義ゲージ量に応じて自分に与ダメージ上昇",
        "is_max_quality": true,
        "effect_value": "最大5000",
        "icon_image": "bonus_30"
      },
      "id": 10596567,
      "level": "1",
      "kind": "9",
      "attribute": "5",
      "next_exp": 30000,
      "remain_next_exp": 30000,
      "exp_width": 0,
      "is_locked": false,
      "is_unnecessary": false,
      "equip_npc_info": []
    },
    {
      "artifact_id": 301070101,
      "max_level": 5,
      "name": "オミナス・バンクル",
      "comment": "",
      "rarity": "3",
      "skill1_info": {
        "skill_id": 30033,
        "skill_quality": 3,
        "level": 1,
        "name": "アビリティダメージ",
        "is_max_quality": false,
        "effect_value": "+15.6%",
        "icon_image": "bonus_28"
      },
      "skill2_info": {
        "skill_id": 30074,
        "skill_quality": 4,
        "level": 1,
        "name": "防御",
        "is_max_quality": false,
        "effect_value": "+11.2%",
        "icon_image": "bonus_28"
      },
      "skill3_info": {
        "skill_id": 30142,
        "skill_quality": 2,
        "level": 1,
        "name": "アビリティダメージ上限",
        "is_max_quality": false,
        "effect_value": "+9.6%",
        "icon_image": "bonus_29"
      },
      "skill4_info": {
        "skill_id": 50131,
        "skill_quality": 1,
        "level": 1,
        "name": "ターン終了時にHPが50%以下の敵がいる時、一度だけ自分のHPを回復",
        "is_max_quality": true,
        "effect_value": "2000",
        "icon_image": "bonus_30"
      },
      "id": 10595928,
      "level": "1",
      "kind": "7",
      "attribute": "5",
      "next_exp": 30000,
      "remain_next_exp": 30000,
      "exp_width": 0,
      "is_locked": false,
      "is_unnecessary": false,
      "equip_npc_info": []
    },
    {
      "artifact_id": 301010201,
      "max_level": 5,
      "name": "サント・クローヌ",
      "comment": "",
      "rarity": "3",
      "skill1_info": {
        "skill_id": 30121,
        "skill_quality": 1,
        "level": 1,
        "name": "有利属性軽減",
        "is_max_quality": false,
        "effect_value": "+4.4%",
        "icon_image": "bonus_28"
      },
      "skill2_info": {
        "skill_id": 30083,
        "skill_quality": 3,
        "level": 1,
        "name": "弱体耐性",
        "is_max_quality": false,
        "effect_value": "+7.8%",
        "icon_image": "bonus_28"
      },
      "skill3_info": {
        "skill_id": 30202,
        "skill_quality": 2,
        "level": 1,
        "name": "チェイン与ダメージUP",
        "is_max_quality": false,
        "effect_value": "+7.2%",
        "icon_image": "bonus_29"
      },
      "skill4_info": {
        "skill_id": 50291,
        "skill_quality": 1,
        "level": 1,
        "name": "バトル終了時にランダムな耳飾りを入手することがある(レベルに応じて入手確率UP/重複不可)　◆サブメンバーにいる場合でも発動",
        "is_max_quality": true,
        "effect_value": "",
        "icon_image": "bonus_30"
      },
      "id": 10595927,
      "level": "1",
      "kind": "1",
      "attribute": "1",
      "next_exp": 30000,
      "remain_next_exp": 30000,
      "exp_width": 0,
      "is_locked": false,
      "is_unnecessary": false,
      "equip_npc_info": []
    }
  ],
  "first": 1,
  "last": 54,
  "prev": 0,
  "next": 2,
  "count": 1075,
  "current": 1,
  "options": {
    "max_number": 1500,
    "number": 1075,
    "sort": {
      "1": [
        6,
        3
      ]
    },
    "filter": {
      "6": "000000",
      "8": "0000000000",
      "25": 0,
      "26": 0,
      "39": 0,
      "40": 0,
      "47": 0,
      "48": 0,
      "49": 0,
      "50": 0,
      "59": [],
      "60": [],
      "61": [],
      "62": 0,
      "63": 0
    },
    "tpl_type": "artifact"
  },
  "default_selector": {
    "sort": {
      "1": [
        5,
        4
      ],
      "2": [
        9,
        4
      ]
    },
    "filter": {
      "6": "000000",
      "8": "0000000000",
      "25": 0,
      "26": 0,
      "39": 0,
      "40": 0,
      "47": "0",
      "48": "0",
      "49": "0",
      "50": "0"
    }
  },
  "has_default_selector": true
}